{
  "files": {
    "main.css": "/static/css/main.0840bb27.css",
    "main.js": "/static/js/main.960fbd16.js",
    "static/js/787.d16e9580.chunk.js": "/static/js/787.d16e9580.chunk.js",
    "static/media/leon_buchner.JPG": "/static/media/leon_buchner.e72b78fdd8280f0bbf74.JPG",
    "static/media/home-main.svg": "/static/media/home-main.359935c39288e92d4dba5c9f2445b91d.svg",
    "static/media/home-bg.jpg": "/static/media/home-bg.dc52d5d40a40b13154b0.jpg",
    "static/media/avatar.svg": "/static/media/avatar.7f806e40d46fc76fbc3c4a3d71349951.svg",
    "static/media/pre.svg": "/static/media/pre.4410c5baaa673cc131da.svg",
    "index.html": "/index.html",
    "main.0840bb27.css.map": "/static/css/main.0840bb27.css.map",
    "main.960fbd16.js.map": "/static/js/main.960fbd16.js.map",
    "787.d16e9580.chunk.js.map": "/static/js/787.d16e9580.chunk.js.map"
  },
  "entrypoints": [
    "static/css/main.0840bb27.css",
    "static/js/main.960fbd16.js"
  ]
}